<?xml version="1.0" standalone="no"?>
<!DOCTYPE svg PUBLIC "-//W3C//DTD SVG 1.1//EN" "http://www.w3.org/Graphics/SVG/1.1/DTD/svg11.dtd" >
<svg xmlns="http://www.w3.org/2000/svg">
<metadata>Generated by IcoMoon</metadata>
<defs>
<font id="aviata-icons" horiz-adv-x="1024">
<font-face units-per-em="1024" ascent="960" descent="-64" />
<missing-glyph horiz-adv-x="1024" />
<glyph unicode="&#x20;" horiz-adv-x="512" d="" />
<glyph unicode="&#xe900;" glyph-name="drop-filters" horiz-adv-x="1317" d="M777.321 473.557l191.339 191.334-191.339 191.335 51.123 51.124 191.339-191.335 191.331 191.335 51.123-51.124-191.331-191.335 191.331-191.334-51.123-51.124-191.331 191.335-191.339-191.335-51.123 51.124zM218.326 664.893h367.665c0-24.634 2.053-48.785 5.999-72.299h-373.661c-14.887-42.121-55.060-72.299-102.278-72.299-59.894 0-108.449 48.553-108.449 108.449s48.553 108.449 108.449 108.449c47.217 0 87.391-30.178 102.278-72.299zM579.819 375.699h116.628c24.595-27.482 52.643-51.807 83.463-72.299h-200.091c-14.887-42.121-55.060-72.297-102.278-72.297s-87.391 30.176-102.278 72.297h-331.516c-19.965 0-36.149 16.186-36.149 36.149s16.186 36.149 36.149 36.149h331.516c14.887 42.121 55.060 72.299 102.278 72.299s87.391-30.178 102.278-72.299zM218.326 86.507c-14.887 42.121-55.060 72.299-102.278 72.299-59.894 0-108.449-48.555-108.449-108.449 0-59.899 48.553-108.449 108.449-108.449 47.217 0 87.391 30.178 102.278 72.299h837.608c19.961 0 36.149 16.181 36.149 36.149 0 19.961-16.189 36.149-36.149 36.149h-837.608z" />
<glyph unicode="&#xe901;" glyph-name="no-return" d="M194.959 764.589l-143.973-21.686-10.843 71.987 215.958 32.528 32.528-215.957-71.986-10.843-21.685 143.972zM246.595 829.546c-120.646-84.28-199.562-224.18-199.562-382.512 0-257.521 208.76-466.276 466.276-466.276 257.521 0 466.283 208.755 466.283 466.276 0 256.775-207.558 465.071-464.047 466.274l-1.48-58.977c224.597-0.408 406.545-182.604 406.545-407.296 0-224.946-182.355-407.294-407.301-407.294-224.942 0-407.294 182.349-407.294 407.294 0 129.152 60.113 244.264 153.887 318.883l-13.307-0.342v63.972zM19.451 48.903l-20.99-20.714 92.566-93.793 931.434 919.225-92.566 93.795-910.442-898.512z" />
<glyph unicode="&#xe902;" glyph-name="equalizer" horiz-adv-x="1365" d="M1021.941 680.065h343.233v-743.946h-343.233v743.946zM511.050-62.49v558.332h343.233v-558.332h-343.233zM0.159-63.881v1023.762h343.233v-1023.762h-343.233z" />
<glyph unicode="&#xe903;" glyph-name="alarm" horiz-adv-x="1138" d="M891.739 420.082v167.449c0.814 127.663-86.625 212.337-161.752 246.054-21.202 9.495-43.52 16.551-66.281 21.932v11.394c0 51.329-42.53 93.089-94.811 93.089-52.283 0-94.817-41.76-94.817-93.089v-13.144c-20.461-5.269-40.562-11.711-59.658-20.35-83.020-37.571-167.141-128.128-167.899-245.774v-167.561c0-118.93-42.781-220.977-127.148-303.301-5.025-4.915-6.845-12.157-4.722-18.807 2.124-6.628 7.87-11.56 14.867-12.754l179.979-30.51c33.944-5.757 64.759-10.354 93.753-14.114 33.091-63.71 98.077-104.596 169.115-104.596 71.054 0 136.061 40.92 169.131 104.653 28.86 3.738 59.523 8.323 93.298 14.057l179.962 30.51c6.997 1.178 12.72 6.11 14.865 12.754 2.145 6.628 0.324 13.892-4.722 18.807-88.366 86.215-133.16 188.262-133.16 303.301zM512.003 866.911c0 30.794 25.524 55.853 56.891 55.853 31.363 0 56.889-25.059 56.889-55.853v-3.594c-37.797 5.25-76.309 4.953-113.78-0.931v4.524zM694.147 35.1c-28.809-38.389-73.734-61.844-121.805-61.844-48.051 0-92.955 23.455-121.76 61.81 7.433-0.745 14.658-1.36 21.864-1.957 3.546-0.296 7.187-0.671 10.695-0.95 2.598-0.205 5.101-0.336 7.661-0.501 55.107-3.948 105.871-3.965 160.922-0.114 3.22 0.228 6.372 0.393 9.631 0.637 4.056 0.313 8.266 0.722 12.402 1.098 6.502 0.558 12.971 1.098 19.649 1.769 0.262 0.017 0.489 0.034 0.74 0.051z" />
</font></defs></svg>